{
    "_attribute_set": "Default",
    "_product_websites": "base",
    "_type": "simple",
    "categories": "Lenti",
    "description": "COBALTO GIALLO",
    "is_in_stock": "1",
    "name": "C013",
    "price": 20,
    "qty": 100,
    "short_description": "SFUMATI",
    "sku": "filtro_c013",
    "status": 1,
    "tax_class_id": 2,
    "visibility": 1,
    "weight": 0
}