{
    "_attribute_set": "Default",
    "_product_websites": "base",
    "_type": "simple",
    "categories": "Lenti",
    "description": "ORO",
    "is_in_stock": "1",
    "name": "C041",
    "price": 40,
    "qty": 100,
    "short_description": "SPECCHIATI",
    "sku": "filtro_c041",
    "status": 1,
    "tax_class_id": 2,
    "visibility": 1,
    "weight": 0
}