{
    "_attribute_set": "Default",
    "_product_websites": "base",
    "_type": "simple",
    "categories": "Lenti",
    "description": "CLIP ON",
    "is_in_stock": "1",
    "name": "CLIP ON argento",
    "price": 100,
    "short_description": "argento",
    "sku": "clip_argento",
    "status": 1,
    "tax_class_id": 2,
    "visibility": 1,
    "weight": 0.5
}